<?xml version="1.0" encoding="UTF-8"?>
<svg width="512px" height="512px" viewBox="0 0 512 512" version="1.1" xmlns="http://www.w3.org/2000/svg" xmlns:xlink="http://www.w3.org/1999/xlink">
    <!-- Generator: Sketch 52.1 (67048) - http://www.bohemiancoding.com/sketch -->
    <title>iColors icon</title>
    <desc>Created with Sketch.</desc>
    <g id="iColors-icon" stroke="none" stroke-width="1" fill="none" fill-rule="evenodd">
        <rect fill="#5402E8" x="0" y="0" width="512" height="512"></rect>
    </g>
</svg>